{
	"characters": [
		{
			"name": "Jon Snow",
			"shortCode": "jon-snow",
			"actor": "Kit Harrington",
			"house": {
				"name": "Stark",
				"seat": "Winterfell",
				"words": "Winter is coming"
			},
			"location": "The Wall"
		},
		{
			"name": "Tyrion Lannister",
			"shortCode": "tyrion",
			"actor": "Peter Dinklage",
			"house": {
                "name": "Lannister",
                "words": "Hear me roar",
                "seat": "Casterly Rock"
            },
			"location": "Mereen"
		},
		{
			"name": "Brienne of Tarth",
			"shortCode": "brienne",
			"actor": "Gwendoline Christie",
			"house": {
                "name": "Tarth",
                "seat": "Evenfall Hall",
                "words": "In darkness we rise"
            }
		},
		{
			"name": "Eddard Stark",
			"shortCode": "ned-stark",
			"actor": "Sean Bean",
			"house": {
                "name": "Stark",
                "words": "Winter is coming",
                "seat": "Winterfell"
            }
		},
		{
			"name": "Sandor Clegane",
			"shortCode": "the-hound",
			"actor": "Rory McCann",
			"location": "",
			"house": {
                "name": "Clegane",
                "seat": "Clegane's Keep"
            }
		},
		{
			"name": "Daenerys Targaryen",
			"shortCode": "dany",
			"actor": "Emilia Clarke",
			"house": "Targaryen",
			"location": "Mereen",
			"house": {
                "name": "Targaryen",
                "seat": "Dragonstone",
                "words": "Fire and blood"
            }
		},
		{
			"name": "King Joffrey Baratheon",
			"shortCode": "joffrey",
			"actor": "Jack Gleeson",
			"house": {
                "name": "Baratheon",
                "seat": "The Red Keep",
                "words": "Ours is the fury"
            },
            "location": "Kings Landing"
		}	
	]
}